 |
 | +-----------------------------------------+         +-----------------------------------+           +-+ +-+     +---------------------------------------------------------+ +-+           +---+
 | |                                         |         |                                   |           | | | |     |                                                         | | |           |   |
 | |                                         |   +-----------------------------------------------------|-|-|-------|---------------------------------------------------------+ | |           |   |
 | |                                         |   |     |                                   |           | | | |     |                                                           | |           |   |
 | |                                         |   |     |                                   +---+       | +-|-----+ | +-----------+             +-+             +---------------|-|-----------+   |
 | |                                         |   |     |                                       |       |   | |   | | |           |             | |             |               | |               |
 | |                                         |   |     |                         +-------------|-------------------|-|-----------------------------------------+       +-------|-|---------+     |
 | |                                         |   |     |                         |             |       |   | |   | | |           |             | |                     |       | |         |     |
 | |                                         |   |     |                         +-------------|-------|-------------------------|-----------------------------------------+   | |         |     |
 | |                                         |   |     |                                       |       |   | |   | | |           |             | |                     |   |   | |         |     |
 | |                 +-----------------------|---------|-----------------------------------------------|---|-----|-|-|-----------|---------------------+   +-------+   |   |   | |   +-----|-+   |
 | |                 |                       |   |     |                                       |       |   | |   | | |           |             | |     |   |       |   |   |   | |   |     | |   |
 | |                 |                       |   |     |                       +-----------------------|---+ |   | | |           |             | |     |   |     +-|-------|---|-----+     | |   |
 | |                 |                       |   |     |                       |               |       |     |   | | |           |             | |     |   |     | |   |   |   | |         | |   |
 | |       +---------|-------------------------------------------------------------------------|-------------------|-|-----------|---------------|---------------|---------------|---------------|-----+
 | |       |         |                       |   |     |                       |               |       |     |   | | |           |             | |     |   |     | |   |   |   | |         | |   |     |
 | |       |         |                       |   |     |                       |               |       |     |   | | |           |             | |     |   |     | |   |   |   | |         | |   |     |
 | |       |         |                       |   |     |                       |               |       |     |   | | |           |             | |     |   |     | |   |   |   | |         | |   |     |
 | |       |         |                 +-----|---------------------------+     |               | +-----|---------|-|-|---------+ |             | | +---|---|---------------+   | |       +-|-----|---+ |
 | |       |         |                 |     |   |     |                 |     |               | |     |     |   | | |         | |             | | |   |   |     | |   |       | |       | | |   |   | |
 | |       |         +-----------------|---------|-----------------------------------------------|-----|-----------|-------------|-------------|---+   |   |     | |   |       | |       | | |   |   | |
 | |       |                           |     |   |     |                 |     |               | |     |     |   | | |         | |             | |     |   |     | |   |       | |       | | |   |   | |
 | |       |                           |     |   |     |                 +-----|---------------|-|-----|---------|---+         | |             +-----------|-----------|-------------+   | | |   |   | |
 | |       |                           |     |   |     |                       |               | |     |     |   | |           | |               |     |   |     | |   |       | |   |   | | |   |   | O
 | |       |                           |     |   |     |                       |             +-|-------|-----------|-----------|-|-------+       |     |   |     | |   |       | |   |   | | |   |   | |
 | |       |                           |     |   |     |                       |             | | |     |     |   | |           | |       |       |     |   |     | |   |       | |   |   | | |   |   | |
 | |       |                           |     |   |     |                       |             | | |     |     |   | |           +-+       |       |     |   |     | |   |       | |   |   | | |   |   | |
 | |       |                           |     |   |     |                       |             | | |     |     |   | |                     |       |     |   |     | |   |       | |   |   | | |   |   | |
 | |       |                           |     |   |     |                       |             | | |     | +-------|-|---------------------|---+ +-----+ |   |     | |   |       | |   |   | | |   |   | |
 | |       |                           |     |   |     |                       |             | | |     | |   |   | |                     |   | | |   | |   |     | |   |       | |   |   | | |   |   | |
 | +---------+                         |     |   +-----|-----------------------|-------------|-|-------|-|---|-----|-+   +-+ +-+ +-------|-+ | | |   | |   |     | |   |       | |   |   | | |   |   | |
 |         | |                         |     |         |                       |             | | |     | |   |   | | |   | | | | |       | | | | |   | |   |     | |   |       | |   |   | | |   |   | |
 |         | |                         |     |         |                       |             | | |     | |   |   | | |   | | | | |       | | | | |   | |   |     | |   |   +-----|-------|-|-|---|-+ | |
 |         | |                         |     |         |                       |             | | |     | |   |   | | |   | | | | |       | | | | |   | |   |     | |   |   |   | |   |   | | |   | | | |
 |         | |                         |     |         |                       |             | | |     | |   |   | | |   | | | | |       | | | | |   | |   |     | |   |   |   | |   |   | | |   | | | |
 |         | |                         |     |         |                       |             | | |     | |   |   | | |   | | | | |       | | | | |   | |   |     | |   |   |   | |   |   | | |   | | | |
 |         | |                         +-----|---------------------------------------------------|-----|-----|---|-|K--------|---|-------|-----|-----|-------------|-------|---|-+   |   | | |   | | | |
 |         | |                               |         |                       |             | | |     | |   |   | | |   | | | | |       | | | | |   | |   |     | |   |   |   |     |   | | |   | | | |
 |         | |       +-----------------------|-----------------------------------------------|---|-----|-|-------|---+   | | | | |       | +-----------|---|-----|-|-----+ |   | +---|-+ | | |   | | | |
 |         | |       |                       |         |                       |             | | |     | |   |   | |     | | | | |       |   | | |   | |   |     | |   | | |   | |   | | | | |   | | | |
 |         | +-------|---------------------------------|-------------------------------------|---------|-|-------|-|-----------|-|-----+ | +---+ |   | |   |     | |   | | |   | |   | | | | |   | | | |
 |         |         |                       |         |                       |             | | |     | |   |   | |     | | | | |     | | | |   |   | |   |     | |   | | |   | |   | | | | |   | | | |
 |         |         |                       | +---------------------------------------------------------|---|---|-------|---|-|-|---------|-|-----+ +-|-----------|---|---|---|-|-------|---------+ | |
 |         |         |                       | |       |                       |             | | |     | |   |   | |     | | | | |     | | | |   | |   |   |     | |   | | |   | |   | | | | |   |   | |
 |         |         |                 +-+   | |       | +---------------------------------------|-----|-|---|-----------|---|---|-----|-|-|-|---|-+   |   |     | |   | | |   | |   | | | | |   |   | |
 |         |         |                 | |   | |       | |                     |             | | |     | |   |   | |     | | | | |     | | | |   |     |   |     | |   | | |   | |   | | | | |   |   | |
 |         |         |         +---------|---|-|-------|---------+             |             | | |     | |   | +---|---------|-|---------|---|-------------------------|-|-----|-|---|-|-+ | |   |   | |
 |         |         |         |       | |   | |       | |       |             |             | | |     | |   | | | |     | | | | |     | | | |   |     |   |     | |   | | |   | |   | |   | |   |   | |
 |         |     +-----------------------------|-----------+     |             |             | | |     | |   | | | |     | | | | |     | | | |   |     |   |     | |   | | |   | |   | |   | |   |   | |
 |         |     |   |         |       | |   | |       | | |     |             |             | | |     | |   | | | |     | | | | |     | | | |   |     |   |     | |   | | |   | |   | |   | |   |   | |
 |     +-----------+ | +-+     |       | |   | |       | | |     |             |             | | |     | |   | | | |     | | | | |     | | | |   |     |   |     | |   | | |   | |   | |   | |   |   | |
 |     |   |     | | | | |     |       | |   | |       | | |     |             |             | | |     | |   | | | |     | | | | |     | | | |   |     |   |     | |   | | |   | |   | |   | |   |   | |
 |     |   |     | | | | |     |       | |   | |       | | |     |             +-------------+ +-|-----------|-|---------+ | | | |     | | | |   |     |   |     | |   | | |   | |   | |   | |   |   | |
 |     |   |     | | | | |     |       | |   | |       | | |     |                               |     | |   | | | |       | | | |     | | | |   |     |   |     | |   | | |   | |   | |   | |   |   | |
 |     |   |     | | | | |     |       | |   | |       | | |     |                               |     | |   | | | |       | | | |     | +-----+ |     |   |     | |   | | |   | |   | |   | |   |   | |
 |     |   |     | | | | |     |       | |   | |       | | |     |                               |     | |   | | | |       | | | |     |   | | | |     |   |     | |   | | |   | |   | |   | |   |   | |
 |     |   |     | +-----|-------------|-|---|---------------------------------------+           |     | |   | | | |       | | | | +---|-----|-------------|-----|-----|-|-------|---------|-+   | +-|-+
 |     |   |     |   | | |     |       | |   | |       | | |     |                   |           |     | |   | | | |       | | | | |   |   | | | |     |   |     | |   | | |   | |   | |   |     | | |
 |     |   |     | +-|---|-------------|-----|-|-----------|-------------------------|-----------|-------|---------|-----------|---|---------|-|-------|-----------|-------|---|-------------+   | | |
 |     |   |     | | | | |     |       | |   | |       | | |     |                   |           |     | |   | | | |       | | | | |   |   | | | |     |   |     | |   | | |   | |   | |   | |   | | |
 |     |   |     | | | | |     |       | |   | |       | | |     |                   |           |     | |   | | | |   +-----|---|-|-------------|-----|---|-----|---+ | | +---|-|---|-----------|---|-+
 |     |   |     | | | | |     |       | |   | |       | | |     |                   |           |     | |   | | | |   |   | | | | |   |   | | | |     |   |     | | | | |     | |   | |   | |   | | | |
 | +-----------------|-|-|-------------|-|---+ |       | | |     |           +-------|-------+   |     | |   | | | |   |   | | | | |   |   | | | |     |   |     | | | | |     | |   | |   | |   | | | |
 | |   |   |     | | | | |     |       | |     |       | | |     |           |       |       |   |     | |   | | | |   |   | | | | |   |   | | | |     |   |     | | | | |     | |   | |   | |   | | | |
 | |   |   |     | | | | |     |       | |     |       | | |     |           |       |       |   |     | |   | | | |   |   | | | | |   |   | | | |     |   |     | | | | |     | +-----------------|-|-+
 | |   |   |     | | | | W     |       | |     |       | | |     |           |       |       |   |     | |   | | | |   |   | | | | |   |   | | | |     |   |     | | | | |     |     | |   | |   | | |
 | |   |   |     | | | | |     |       | |     |     +---|-------|-------------------|-+     |   |     | |   | | | |   |   | | | | |   | +-|-|-|-----------------|---|-+ +-----|---+ | |   | |   | | |
 | |   |   |     | | | | |     |       | |     |     | | | |     |           |       | |     |   |     | |   | | | |   |   | | | | |   | | | | | |     |   |     | | |         |   | | |   | |   | | |
 | |   |   |     | | | | |     |       | |     |     | | | |     |           |       | |     |   |     | |   | | +-----|-----|-----|-----|-|-|---+     |   |     | | | +-+     |   | | |   | |   | | |
 | |   |   |     | | | | |     |       | |     |     | | | |     |           |       | |     |   |     | |   | |   |   |   | | | | |   | | | | |       |   |     | | | | |     |   | | |   | |   | | |
 | |   |   |     | | | | |     |     +-|-|-----|-------|-|-----------------------------|---+ |   |     | |   | |   +---|---|-|-|-|-----|-|-|-|-|-----------|--R--|---+ | |     |   +-|-+   | |   | | |
 | |   |   |     | | | | |     |     | | |     |     | | | |     |           |       | |   | |   |     | |   | |       |   | | | | |   | | | | |       |   |     | |   | |     |     |     | |   | | |
 | |   +---------|-------------|---------------|-----|-|-|-------------------+       | |   | |   |     | |   | |       |   | | | | |   | | | | |       |   |     | |   | |     |   +-+ +---|---+ | | |
 | |       |     | | | | |     |     | | |     |     | | | |     |                   | |   | |   |     | |   | |       |   | | | | |   | | | | |       |   |     | |   | |     |   |   |   | | | | | |
 | |       |     | | | | |     |     | | |     |     | | | |     |                   +-|---------------|-|---|-|-------------|-|-|-----|-|-|-----------|---------+ |   | |     |   |   |   | | | | | |
 | |       |     | | | | |     |     | | |     |     | | | |     |                     |   | |   |     | |   | |       |   | | | | |   | | | | |       |   |       |   | |     |   |   |   | | | | | |
 | |       |     | | | | |     |     | | +-----------------------|---------------------|---|-----|-----|-------|-------|---|-----|-----|---|-|---------|-+ |       |   | |     +---+   |   | | | | | |
 | |       |     | | | | |     |     | |       |     | | | |     |                     |   | |   |     | |   | |       |   | | | | |   | | | | |       | | |       |   | |             |   | | | | | |
 | | +-----|---------|-----------------|-------|-----|-|---|-----|---------------------------|---|-------------|-----------------|-|-----------|-----+ | | |       |   | |             |   | | | | | |
 | | |     |     | | | | |     |     | |       |     | | | |     |                     |   | |   |     | |   | |       |   | | | | |   | | | | |     | | | |       |   | |             |   | | | | | |
 | | +---+ |     | | | | |     |     | +-----------+ | | | |     |                     |   | |   |     | |   | |       |   | | | | |   | | | | |     | +-|-|-----------|-|-------+ +-------|-|-----|---+
 | |     | |     | | | | |     |     |         |   | | | | |     |                     |   | |   |     | |   | |       |   | | | | |   | | | | |     |   | |       |   | |       | |   |   | | | | | | |
 +-|-------------|-|-|-|-------------|-------------|-------------|-------------------------|-----------|-----------------+ | | | | |   | | | | |     |   | |       |   | |       | |   |   | | | | | | |
   |     | |     | | | | |     |     |         |   | | | | |     |                     |   | |   |     | |   | |       | | | | | | |   | | | | |     |   | |       |   | |       | |   |   | | | | | | |
 +---+   | |     | | | | |     |     |         |   | | | | |     |                     +---------------|-+   | |       | | | | | | |   | | | | |     |   | |       |   | |       | |   |   | | | | | | |
 | | |   | |     | | | | |     |     |         |   | | | | |     |                         | |   |     |     | |       | | | | | | |   | | | | |     |   | |       |   | |       | |   |   | | | | | | |
 | | |   | |   +---|-----|-----|-----|-+       |   | | | | |     |                     +-----|---|-----|-----|-------------|-----------|-|---|-------------|-------|-------------|-+   |   | | | | | | |
 | | |   | |   | | | | | |     |     | |       |   | | | | |     |                     |   | |   |     |     | |       | | | | | | |   | | | | |     |   | |       |   | |       |     |   | | | | | | |
 | | |   | |   | | | | | |   +-+     | |       |   | | | | |     |                   +-+   | |   |     |     | |       | | | | | | |   | | | | |     |   | |       |   | |       |     |   | | | | | | |
 | | |   | |   | | | | | |   |       | |       |   | | | | |     |                   |     | |   |     |     | |       | | | | | | |   | | | | |     |   | |       |   | |       |     |   | | | | | | |
 +---|-----------|-|-|-|-----|-------|---------|---|-|-----|-------------------------|-----+ |   |     |     | |       | | | | | | |   | | | | |     |   | |       |   | |       |     | +-+ | | | | | |
   | |   | |   | | | | | |   |       | |       |   | | | | |     |                   |       |   |     |     | |       | | | | | | |   | | | | |     |   | |       |   | |       |     | |   | | | | | |
   | |   | |   | | | | +-----+       | |       |   +-|-----|-----|-------------------|-------|---------|-----|-------------|-------|-----|-----|-----|---|-------------+ |       |     | |   | | | | | |
   | |   | |   | | | |   |           | |       |     | | | |     |                   |       |   |     |     | |       | | | | | | |   | | | | |     |   | |       E     |       |     | |   | | | | | |
   | |   | |   | | | |   |           +-|-------------------|-------------------------------------|-----------|-|-------|---|-|-|-------|-----|-|-----|---|---------|-----------+ |     | |   | | | | | |
   | |   | |   | | | |   |             |       |     | | | |     |                   |       |   |     |     | |       | | | | | | |   | | | | |     |   | |       |     |     | |     | |   | | | | | |
 +---------|---|-----------------------|-------------------|---------------------+   |       | +-|-----+     | |       | | | | | | |   | | | | |     |   | +-------|-----|-------|---+ | | +-----|-|---+
 | | |   | |   | | | |   |             |       |     | | | |     |               |   |       | | |           | |       | | | | | | |   | | | | |     |   |         |     |     | |   | | | | | | | | |
 | | +---|-----+ | | |   |             |       |     | | | |     |               |   |       | | |           | |       | | | | | +-----------|-|-----|-------------+     |     | |   | | | | | | | | |
 | |     | |     | | |   |             |       |     | | | |     |               |   |       | | |           | |       | | | | |   |   | | | | |     |   |               |     | |   | | | | | | | | |
 +-----+ | |     | | |   |             |       |     | | | |     |               |   |       | | |   +---------|-------|---|-|-----|---|-----|-|---------|-----------------------|-----|-|-|---|-|---|-+
   |   | | |     | | |   |             |       |     | | | |     |               |   |       | | |   |       | |       | | | | |   |   | | | | |     |   |               |     | |   | | | | | | | | | |
   |   +-|-----------|---|---------------+     |     | | | |     |               |   |       | | |   |       | |       | | | | |   |   | | | | |     |   |               |     | |   | | | | | | | | | |
   |     | |     | | |   |             | |     |     | | | |     |               |   |       | | |   |       | |       | | | | |   |   | | | | |     |   |               |     | |   | | | | | | | | | |
 +---------------|-------|---------------|-+   |     | | | |   +-----------------------------|---|-+ |       | |       | | | | |   |   | | | | |     |   |               +-----|-|-+ | | | | | | | | | |
 | |     | |     | | |   |             | | |   |     | | | |   | |               |   |       | | | | |       | |       | | | | |   |   | | | | |     |   |                     | | | | | | | | | | | | |
 | |     | +-----|-------|---------------------|-------|---------|---------------------------|-|-----|-------|-----------|-+ +-----|---|---|---------|---|-+                   | | | | | | | | | | | | |
 | |     |       | | |   |             | | |   |     | | | |   | |               |   |       | | | | |       | |       | |     |   |   | | | | |     |   | |                   | | | | | | | | | | | | |
 | |     |       | | |   |             | | |   |     | | | +---------------------------------|-|-|-|-|---------|-------|-|-------------|-------|-----|---|---------------------------|---|-+ | | | | | |
 | |     |       | | |   |             | | |   |     | | |     | |               |   |       | | | | |       | |       | |     |   |   | | | | |     |   | |                   | | | | | |   | | | | | |
 +---+   |       | | |   |             | | |   |     | | |     | |               |   |   +---|-|-|-----------------------------|-------|---|-|-|-----|---|---------+           | | | | | |   | | | | | |
   | |   |       | | |   |             | | |   |     | | |     | |               |   |   |   | | | | |       | |       | |     |   |   | | | | |     |   | |       |           | | | | | |   | | | | | |
   | |   | +-------|-------------------|-|-|---------------------|---------------------+ |   | | | +-|-------|-------+ | |     |   |   | | | | |     |   | |       |           | | | | | |   | | | | | |
   | |   | |     | | |   |             | | |   |     | | |     | |               |   | | |   | | |   |       | |     | | |     |   |   | | | | |     |   | |       |           | | | | | |   | | | | | |
   +-------|-------|-----|-------------|---|---|-----|-----------|---------------|-----------+ | |   |       | |     | | |     |   |   | | | | |     |   | |       |           | | | | | |   | | +-+ | |
     |   | |     | | |   |             | | |   |     | | |     | |               |   | | |     | |   |       | |     | | |     |   |   | | | | |     |   | |       |           | | | | | |   | |     | |
     |   | |     | | |   |             | | |   |     | | |     | |               |   | | |     | |   |       | |     | | |     |   |   | | | | |     |   | |       |           | | | | | |   | |     | |
     |   | |     | | |   |             | | |   |     | | |     | |               |   | | |     | |   |       | |     | | |     |   |   | | | | |     |   | |       |           | | | | | |   | |     | |
 +---|-----|-----|---------------------|-|-------------|-------|-----------------|---|-|-|-------|-----------------------|-----|---|---+ | | | |     |   | |       |           | | | | | |   | |     | |
 |   |   | |     | | |   |             | | |   |     | | |     | |               |   | | |     | |   |       | |     | | |     |   |     | | | |     |   | |       |           | | | | | |   | |     | |
 |   |   | |     | | |   |             | | |   |     | +-|-------|---------------|-----|---+ +---|---|-------|-------|---|-----|---|-----|-+ | |     |   | |       |           | | | | | |   | |     | |
 |   |   | |     | | |   |             | | |   |     |   |     | |               |   | | | | | | |   |       | |     | | |     |   |     |   | |     |   | |       |           | | | | | |   | |     | |
 |   |   | |   +-----|-------------------|-|-------+ |   |     | |   +---------------|---|-|-|-|-----|-------|-------|---|-----|---|---------|-------------|-------------+   +-----|---|-|-+ | |     | |
 |   |   | |   | | | |   |             | | |   |   | |   |     | |   |           |   | | | | | | |   |       | |     | | |     |   |     |   | |     |   | |       |     |   | | | | | | | | | |     | |
 |   |   | |   | | | |   +-----------+ +---|-------|-+   |     | |   |           +---|-|-----|---------------|-------|---|---------|-----------------|---+ |     +-|-+   |   | | | | | | | | | |     | |
 |   |   | |   | | | |               |   | |   |   |     |     | |   |               | | | | | | |   |       | |     | | |     |   |     |   | |     |     |     | | |   |   | | | | | | | | | |     | |
 |   |   | |   | | | |               |   | |   |   | +---|-----------|-----------+   | | | | | | |   |       | |     | | |     |   |     |   | |     |     |     | | |   |   +-|---|-----+ | | |     | |
 |   |   | |   | | | |               |   | |   |   | |   |     | |   |           |   | | | | | | |   |       | |     | | |     |   |     |   | |     |     |     | | |   |     | | | | |   | | |     | |
 |   |   | |   | | | |               +---|-|---|---------|-----|-----------------+   | | | | | | |   |       | |     | | |     |   |     |   | |     |     |     | | |   |     | | | | |   | | |     | |
 |   |   | |   | | | |                   | |   |   | |   |     | |   |               | | | | | | |   |       | |     | | |     |   |     |   | |     |     |     | | |   |     | | | | |   | | |     | |
 | +-|-+ | |   | | | |                   | +-------------------|-----------------------|-----|-|-|-------------|---+ | | | +---|---------------|-----------|-----|-------------|-----|-+   | | |     | |
 | | | | | |   | | | |                   |     |   | |   |     | |   |               | | | | | | |   |       | |   | | | | |   |   |     |   | |     |     |     | | |   |     | | | |     | | |     | |
 | | | | | |   | | | |                   +-----|---------------|-+   |               | | | | | | |   |       | |   | | | | |   |   |     |   | |     |     |     | | |   |     | | | |     | | |     | |
 | | | | | |   | | | |                         |   | |   |     |     |               | | | | | | |   |       | |   | | | | |   |   |     |   | |     |     |     | | |   |     | | | |     | | |     | |
 | | | | | |   | | | |                         |   | |   |     |     |               | | | | | | |   |       | |   | | | | |   |   |     |   | |     |     |     | | |   |     | | | |     | | |     | |
 | | | | | |   | | | |                         |   | |   |     |     |               | | | | | | |   |       | |   | | | | |   |   |     |   | |     |     |     | | |   |     | | | |     | | |     | |
 | | | | | |   | | | |                         |   | |   +-----|---------------------------|-|-|-----|-------+ |   | | | | |   |   |     |   | |     |     |     | | |   |     | | | +-+   | | |     | |
 | | | | | |   | | | |                         |   | |         |     |               | | | | | | |   |         |   | | | | |   |   |     |   | |     |     |     | | |   |     | | |   |   | | |     | |
 | | | | | |   | | | |                         |   | |         |     |               | | | | | | | +-|-------------|-|-----+   |   |     |   | |     |     |     | | |   |     | | |   |   | | |     | |
 | | | | | |   | | | |                         |   | |         |     |               | | | | | | | | |         |   | | | |     |   |     |   | |     |     |     | | |   |     | | |   |   | | |     | |
 | | | | | |   | | | |                         |   | |         |     |               | | | | | | | | |         |   | | | |     |   |     |   | |     |     |     | | |   |     | | |   |   | | |     | |
 | | | | | |   | | | |                         |   | |         |     |               | | | | | | | | |         |   | | | |     |   |     |   | |     |     |     | | |   |     | | |   |   | | |     | |
 | | | | | |   | | | |                         |   | +---------|-----|---------------|-|-|-------|-----------------+ | | |     |   |     |   | |     |     |     | | +---|---+ | | | B +---|-|-|-+   | |
 | | | | | |   | | | |                         |   |           |     |               | | | | | | | | |         |     | | |     |   |     |   | |     |     |     | |     |   | | | | |     | | | |   | |
 | | | | | |   | | | |                         |   |           |     |               | | | | | | | | |         |     | | |     |   | +---+   | |     |     |     | |     |   | | | | +-+   | | | |   | |
 | | | | | |   | | | |                         |   |           |     |               | | | | | | | | |         |     | | |     |   | |       | |     |     |     | |     |   | | | |   |   | | | |   | |
 | | | | | |   +-|-|-------------+             |   |           |     |               +-+ | +---|-|---|-------------+ | | |     |   | |       | |     |     |     | | +-------|-----|---|-+ | | | |   | |
 | | | | | |     | | |           |             |   |           |     |                   |   | | | | |         |   | | | |     |   | |       | |     |     |     | | |   |   | | | |   | | | | | |   | |
 | | | | | |     | | |           |             |   |   +-------+     |                   |   | | | | |       +-|---|---|-|-----------|---------------|---+ | +-------|-----------|-----|-|-------|-+ | |
 | | | | | |     | | |           |             |   |   |             |                   |   | | | | |       | |   | | | |     |   | |       | |     |   | | |   | | |   |   | | | |   | | | | | | | | |
 | | | | | |     | | |           |             |   |   |             |                   |   | | +-|-|-------|-|---|---|-|---------|-+       | |     |   +-|---+ | +-+   |   | | | +---+ +-+ | | | | | |
 | | | | | |     | | |           |             |   |   |             |                   |   | |   | |       | |   | | | |     |   |         | |     |     | | | |       |   | | |           | | | | | |
 | | +-|---|-----+ | |           |             |   |   |             |                   |   | |   | |       | |   | | | |     |   |         | |     |     | | | |       |   | | |           | | | | | |
 | |   | | |       | |           |             |   |   |             |                   |   | |   | |       | |   | | | |     |   |         | |     |     | | | |       |   | | |           | | | | | |
 | |   | | |       | |           +---------+   |   |   |             |           +---------------------------|-----|-|---|-----|---|---------|-|-------------------------|-----|---------+   | | | | | |
 | |   | | |       | |                     |   |   |   |             |           |       |   | |   | |       | |   | | | |     |   |         | |     |     | | | |       |   | | |       |   | | | | | |
 | |   | | |       | |                     |   |   |   +-------------+   +-------|-----------|-+   | |       | |   | | | |     |   |         | |     |     | | | |       |   | | |       |   | | | | | |
 | |   | | |       | |                     |   |   |                     |       |       |   |     | |       | |   | | | |     |   |         | |     |     | | | |       |   | | |       |   | | | | | |
 +-+J  | +-|-+     | +---+                 |   |   |                     |       |       |   |     | |       | +---|---+ |     |   |         | |     |   +-+ | +-|-------|---|-------------------+ | +-+
       |   | |     |     |                 |   |   |                     |       |       |   |     | |       |     | |   |     |   |         | |     |   |   |   |       |   | | |       |   | |   |
       |   | |     +---+ +-------------------------|---------------------|-------------------------|-|-------|-----|-----+     |   |         | |     |   |   |   |       |   | | |       |   | |   |
       |   | |         |                   |   |   |                     |       |       |   |     | |       |     | |         |   |         | |     |   |   |   |       |   | | |       |   | |   |
       |   +-----------------------+       | +-+   |               +-+   |       |       +---|-------|-------|-------|---------|---|---------|-|-----|-+ |   |   |       |   | | |       |   | |   |
       |     |         |           |       | |     |               | |   |       |           |     | |       |     | |         |   |         | |     | | |   |   |       |   | | |       |   | |   |
   +---------+         |           +-------|-----------------------+ +-----------------------|-----|-----------+   | |         |   +-----------|-----------------------+ |   | | |       |   | |   +---+
   |   |               |                   | |     |                     |       |           |     | |       | |   | |         |             | |     | | |   |   |     | |   | | |       |   | |       |
   |   |               |                   | +--N------------------------|-------------------|-----+ |       | +---|-|-+       |             | |     | | |   |   |     | |   | | |       |   | |       |
   |   |               |                   |       |                     |       |           |       |       |     | | |       |             | |     | | |   |   |     | |   | | |       |   | |       |
   |   |               |         +-----------------|---------------+ +-----------|-----------+ +-------------|-----|---+       +-------------|-|-----|---|---+   |     | |   | | |       |   | |       |
   |   |               |         |         |       |               | |   |       |             |     |       |     | |                       | |     | | |       |     | |   | | |       |   | |       |
 +---------------------+         | +---------------+     +-----+   | |   |       |             |     |       |     | |                       | |     | | |       |     | |   | | |       |   | |       |
 | |   |                         | |       |             |     |   | |   |       |             |     |       |     | |                       | |     | | |       |     | |   | | |       |   | |       |
 | |   |                         | |       |             +-----|-----|---|-----------------------------------+     | |                       | |     | | |       |     | |   | | |       |   | |       |
 | |   |                         | |       |                   |   | |   |       |             |     |             | |                       | |     | | |       |     | |   | | |       |   | |       |
 +-|-----+                       +-+       |                   |   | +---|-------|-------------+     |             | |                       +-|--------L--------------+ |   | | |       |   | |       |
   |   | |                                 |                   |   |     |       |                   |             | |                         |     | | |       |       |   | | |       |   | |       |
   |   | |                                 |                   |   |     +---------------------------|---------------|-------------------------------+ | |       |       |   +---+       |   | |       |
   |   | |                                 |                   |   |             |                   |             | |                         |       | |       |       |     |         |   | |       |
   |   | |                                 |                   |   |             |                   +-----------------------------------------|-------|-----------------|---+ |         |   | | +---+ |
   |   | |                                 |                   |   |             |                                 | |                         |       | |       |       |   | |         |   | | |   | |
   |   | |                                 |                   |   |             |                                 | |                         |       | |       |       |   | |         |   | | |   | |
   |   | |                                 |                   |   |             |                                 | |                         |       | |       |       |   | |         |   | | |   | |
   |   | +---------------------------------|-----------------------|-------------------------------------------------+                         |       | |       |       |   | |         +-----|-----+ |
   |   |                                   |                   |   |             |                                 |                           |       | |       |       |   | |             | | |     |
   |   |             +---------------------------------------------+             |                                 |                           |       | |       |       |   +---------------+ +---+   |
   |   |             |                     |                   |                 |                                 |                           |       | |       |       |     |                 | |   |
 +-+   |             |                     |                   |                 |                                 |                           |       | |       |     +-------------------------+ +---+
 |     |             |                     |                   |                 |                                 |                           |       | |       |     | |     |
 |     +-------------------------------------------------------|-----------------|---------------------------------|---------------------------|-------|---------|-----+ |     |
 |                   |                     |                   |                 |                                 |                           |       | |       |       |     |
 |                   +-----------------------------------------+                 |         +-----------------------|---------------------------+       | |       |       |     |
 |                                         |                                     |         |                       |                                   | |       |       |     |
 |                                         |   +---------------------------------|-------------+                   |         +---------------------------+       |       |     |
 |                                         |   |                                 |         |   |                   |         |                         |         |       |     |
 +-----------------------------------------+   +---------------------------------|---------|-+ |                   |         +---------+               |         |       |     |
                                                                                 |         | | |                   |                   |               |         |       |     |
 +--------Y----------------------------------------------------------------------|-----------|-|-------------------------------------------------------|---------|-------+     |
 |                                                                               |         | | |                   |                   |               |         |             |
 +-------------------------------------------------------------------------------+         +-+ +-------------------+                   +---------------+         +-------------+
